{
    "inputMessageMetadata": {},
    "outputMessageMetadata": {
        "messagePayload": {
            "connectorName": "#_custom_mule_metadata_type_#",
            "typeId": "customerList"
        }
    },
    "id": "58e798a7-d1c5-4c2b-a326-8847dc348003",
    "version": "5.2.0.0"
}