[
  {
    "id": 1232434343,
    "firstName": "Carla",
    "address": [
        {
          "id": 1,
          "addressLine": "190 Halo Rd",
          "city": "Hamilton",
          "postCode": "3204",
          "country": "New Zealand"
        },
        {
          "addressLine": "190 Halo Rd",
          "city": "Auckland",
          "postCode": "2000",
          "country": "New Zealand"
        }
      ]
  },
  {
    "id": 12345678,
    "firstName": "Siena",
    "address": [
        {
          "id": 3,
          "addressLine": "Second Road",
          "city": "Hamilton",
          "postCode": "3204",
          "country": "New Zealand"
        }
      ]
    }
]
